INDEX VERSION 1.131+C:\Users\lta12\eclipse-workspace\.metadata\.plugins\org.eclipse.jdt.core
7222808.index
4244919177.index
58319260.index
4200321729.index
3858244828.index
3818802553.index
1028277720.index
1482993441.index
1370709461.index
1246196742.index
3271193799.index
3991707176.index
2958835915.index
1164987639.index
1547947070.index
2954482284.index
3380419590.index
591931774.index
